{
	"errcode": "0",
	"count": 2,
	"errmsg": "获取成功",
	"userList": [
		{
			"userProfileEntity": null,
			"shopNames": "bin(总店)",
			"id": 87,
			"code": "1002",
			"merchantId": 33,
			"shopId": 0,
			"identity": 5,
			"mobile": "13609724701",
			"nickname": "wen",
			"password": "e10adc3949ba59abbe56e057f20f883e",
			"salt": null,
			"city": null,
			"status": 0,
			"createTime": 1519639070000,
			"updateTime": null
		}, {
			"userProfileEntity": null,
			"shopNames": "bin(总店)",
			"id": 86,
			"code": "1001",
			"merchantId": 33,
			"shopId": 0,
			"identity": 5,
			"mobile": "13609724650",
			"nickname": "juan",
			"password": "e10adc3949ba59abbe56e057f20f883e",
			"salt": null,
			"city": null,
			"status": 0,
			"createTime": 1519638788000,
			"updateTime": null
		}
	]
}